{
    "count": 176808,
    "next": "https://api.arcsecond.io/activities/?format=json&page=8&page_size=20",
    "previous": "https://api.arcsecond.io/activities/?format=json&page=6&page_size=20",
    "results": [
        {
            "id": 180457,
            "creation_date": "2022-08-07T17:42:41.482702Z",
            "date": "2021-09-10T12:01:01Z",
            "links": [],
            "title": "A new night of observations!",
            "content": "The telescope CATA500 started observations for the night 2021-09-10.",
            "label": "",
            "profile": "arcsecond",
            "observing_site": null,
            "telescope": "7b991797-4d42-41c8-8334-1edbe885d7a5",
            "instrument": null,
            "programme": null,
            "programme_type": "",
            "target_name": "",
            "coordinates": null,
            "organisation": "oma",
            "collaboration": null
        },
        {
            "id": 180456,
            "creation_date": "2022-08-07T17:42:41.460000Z",
            "date": "2021-09-16T12:01:01Z",
            "links": [],
            "title": "A new night of observations!",
            "content": "The telescope CATA500 started observations for the night 2021-09-16.",
            "label": "",
            "profile": "arcsecond",
            "observing_site": null,
            "telescope": "7b991797-4d42-41c8-8334-1edbe885d7a5",
            "instrument": null,
            "programme": null,
            "programme_type": "",
            "target_name": "",
            "coordinates": null,
            "organisation": "oma",
            "collaboration": null
        },
        {
            "id": 180455,
            "creation_date": "2022-08-07T17:42:41.361656Z",
            "date": "2021-09-17T12:01:01Z",
            "links": [],
            "title": "A new night of observations!",
            "content": "The telescope CATA500 started observations for the night 2021-09-17.",
            "label": "",
            "profile": "arcsecond",
            "observing_site": null,
            "telescope": "7b991797-4d42-41c8-8334-1edbe885d7a5",
            "instrument": null,
            "programme": null,
            "programme_type": "",
            "target_name": "",
            "coordinates": null,
            "organisation": "oma",
            "collaboration": null
        },
        {
            "id": 180454,
            "creation_date": "2022-08-07T17:42:41.338584Z",
            "date": "2021-09-19T12:01:01Z",
            "links": [],
            "title": "A new night of observations!",
            "content": "The telescope CATA500 started observations for the night 2021-09-19.",
            "label": "",
            "profile": "arcsecond",
            "observing_site": null,
            "telescope": "7b991797-4d42-41c8-8334-1edbe885d7a5",
            "instrument": null,
            "programme": null,
            "programme_type": "",
            "target_name": "",
            "coordinates": null,
            "organisation": "oma",
            "collaboration": null
        },
        {
            "id": 180453,
            "creation_date": "2022-08-07T17:42:41.316758Z",
            "date": "2021-09-21T12:01:01Z",
            "links": [],
            "title": "A new night of observations!",
            "content": "The telescope CATA500 started observations for the night 2021-09-21.",
            "label": "",
            "profile": "arcsecond",
            "observing_site": null,
            "telescope": "7b991797-4d42-41c8-8334-1edbe885d7a5",
            "instrument": null,
            "programme": null,
            "programme_type": "",
            "target_name": "",
            "coordinates": null,
            "organisation": "oma",
            "collaboration": null
        },
        {
            "id": 180452,
            "creation_date": "2022-08-07T17:42:41.294576Z",
            "date": "2021-09-22T12:01:01Z",
            "links": [],
            "title": "A new night of observations!",
            "content": "The telescope CATA500 started observations for the night 2021-09-22.",
            "label": "",
            "profile": "arcsecond",
            "observing_site": null,
            "telescope": "7b991797-4d42-41c8-8334-1edbe885d7a5",
            "instrument": null,
            "programme": null,
            "programme_type": "",
            "target_name": "",
            "coordinates": null,
            "organisation": "oma",
            "collaboration": null
        },
        {
            "id": 180451,
            "creation_date": "2022-08-07T17:42:41.271607Z",
            "date": "2021-09-23T12:01:01Z",
            "links": [],
            "title": "A new night of observations!",
            "content": "The telescope CATA500 started observations for the night 2021-09-23.",
            "label": "",
            "profile": "arcsecond",
            "observing_site": null,
            "telescope": "7b991797-4d42-41c8-8334-1edbe885d7a5",
            "instrument": null,
            "programme": null,
            "programme_type": "",
            "target_name": "",
            "coordinates": null,
            "organisation": "oma",
            "collaboration": null
        },
        {
            "id": 180450,
            "creation_date": "2022-08-07T17:42:41.247651Z",
            "date": "2021-09-30T12:01:01Z",
            "links": [],
            "title": "A new night of observations!",
            "content": "The telescope CATA500 started observations for the night 2021-09-30.",
            "label": "",
            "profile": "arcsecond",
            "observing_site": null,
            "telescope": "7b991797-4d42-41c8-8334-1edbe885d7a5",
            "instrument": null,
            "programme": null,
            "programme_type": "",
            "target_name": "",
            "coordinates": null,
            "organisation": "oma",
            "collaboration": null
        },
        {
            "id": 180449,
            "creation_date": "2022-08-07T17:42:41.222460Z",
            "date": "2021-10-07T12:01:01Z",
            "links": [],
            "title": "A new night of observations!",
            "content": "The telescope CATA500 started observations for the night 2021-10-07.",
            "label": "",
            "profile": "arcsecond",
            "observing_site": null,
            "telescope": "7b991797-4d42-41c8-8334-1edbe885d7a5",
            "instrument": null,
            "programme": null,
            "programme_type": "",
            "target_name": "",
            "coordinates": null,
            "organisation": "oma",
            "collaboration": null
        },
        {
            "id": 180448,
            "creation_date": "2022-08-07T17:42:04.894695Z",
            "date": "2021-10-07T12:01:01Z",
            "links": [],
            "title": "A new night of observations!",
            "content": "The telescope CATA500 started observations for the night 2021-10-07.",
            "label": "",
            "profile": "arcsecond",
            "observing_site": null,
            "telescope": "7b991797-4d42-41c8-8334-1edbe885d7a5",
            "instrument": null,
            "programme": null,
            "programme_type": "",
            "target_name": "",
            "coordinates": null,
            "organisation": "oma",
            "collaboration": null
        },
        {
            "id": 180447,
            "creation_date": "2022-08-07T17:23:07.308327Z",
            "date": "2021-10-06T12:01:01Z",
            "links": [],
            "title": "New member in the organisation",
            "content": "Welcome to @margudo! (<a href=\"mailto:maria.argudo@pucv.cl\" target=_blank>email</a>)",
            "label": "",
            "profile": "arcsecond",
            "observing_site": null,
            "telescope": null,
            "instrument": null,
            "programme": null,
            "programme_type": "",
            "target_name": "",
            "coordinates": null,
            "organisation": "oma",
            "collaboration": null
        },
        {
            "id": 180446,
            "creation_date": "2022-08-07T17:23:07.284585Z",
            "date": "2021-10-06T12:01:01Z",
            "links": [],
            "title": "New member in the organisation",
            "content": "Welcome to @lucasb! (<a href=\"mailto:lucas11bc@gmail.com\" target=_blank>email</a>)",
            "label": "",
            "profile": "arcsecond",
            "observing_site": null,
            "telescope": null,
            "instrument": null,
            "programme": null,
            "programme_type": "",
            "target_name": "",
            "coordinates": null,
            "organisation": "oma",
            "collaboration": null
        },
        {
            "id": 180445,
            "creation_date": "2022-08-07T17:23:07.261570Z",
            "date": "2021-08-08T12:01:01Z",
            "links": [],
            "title": "New member in the organisation",
            "content": "Welcome to @ntejos! (<a href=\"mailto:nicolas.tejos@pucv.cl\" target=_blank>email</a>)",
            "label": "",
            "profile": "arcsecond",
            "observing_site": null,
            "telescope": null,
            "instrument": null,
            "programme": null,
            "programme_type": "",
            "target_name": "",
            "coordinates": null,
            "organisation": "oma",
            "collaboration": null
        },
        {
            "id": 180444,
            "creation_date": "2022-08-07T17:23:07.238288Z",
            "date": "2021-08-08T12:01:01Z",
            "links": [],
            "title": "New member in the organisation",
            "content": "Welcome to @jlprieto! (<a href=\"mailto:jose.prietok@mail.udp.cl\" target=_blank>email</a>)",
            "label": "",
            "profile": "arcsecond",
            "observing_site": null,
            "telescope": null,
            "instrument": null,
            "programme": null,
            "programme_type": "",
            "target_name": "",
            "coordinates": null,
            "organisation": "oma",
            "collaboration": null
        },
        {
            "id": 180443,
            "creation_date": "2022-08-07T17:23:07.214850Z",
            "date": "2021-08-08T12:01:01Z",
            "links": [],
            "title": "New member in the organisation",
            "content": "Welcome to @matthias.schreiber! (<a href=\"mailto:matthias.schreiber@usm.cl\" target=_blank>email</a>)",
            "label": "",
            "profile": "arcsecond",
            "observing_site": null,
            "telescope": null,
            "instrument": null,
            "programme": null,
            "programme_type": "",
            "target_name": "",
            "coordinates": null,
            "organisation": "oma",
            "collaboration": null
        },
        {
            "id": 180442,
            "creation_date": "2022-08-07T17:23:07.191322Z",
            "date": "2021-05-25T12:01:01Z",
            "links": [],
            "title": "New member in the organisation",
            "content": "Welcome to @sofia.gac! (<a href=\"mailto:admin@astrofisica.cl\" target=_blank>email</a>)",
            "label": "",
            "profile": "arcsecond",
            "observing_site": null,
            "telescope": null,
            "instrument": null,
            "programme": null,
            "programme_type": "",
            "target_name": "",
            "coordinates": null,
            "organisation": "oma",
            "collaboration": null
        },
        {
            "id": 180441,
            "creation_date": "2022-08-07T17:23:07.167025Z",
            "date": "2021-03-29T12:01:01Z",
            "links": [],
            "title": "New member in the organisation",
            "content": "Welcome to @andres.jordan! (<a href=\"mailto:andres.jordan@gmail.com\" target=_blank>email</a>)",
            "label": "",
            "profile": "arcsecond",
            "observing_site": null,
            "telescope": null,
            "instrument": null,
            "programme": null,
            "programme_type": "",
            "target_name": "",
            "coordinates": null,
            "organisation": "oma",
            "collaboration": null
        },
        {
            "id": 180440,
            "creation_date": "2022-08-07T17:23:07.144206Z",
            "date": "2021-03-19T12:01:01Z",
            "links": [],
            "title": "New member in the organisation",
            "content": "Welcome to @vincentsuc! (<a href=\"mailto:vincent.suc@gmail.com\" target=_blank>email</a>)",
            "label": "",
            "profile": "arcsecond",
            "observing_site": null,
            "telescope": null,
            "instrument": null,
            "programme": null,
            "programme_type": "",
            "target_name": "",
            "coordinates": null,
            "organisation": "oma",
            "collaboration": null
        },
        {
            "id": 180439,
            "creation_date": "2022-08-07T17:23:07.118964Z",
            "date": "2021-03-15T12:01:01Z",
            "links": [],
            "title": "New member in the organisation",
            "content": "Welcome to @cedric! (<a href=\"mailto:cedric@arcsecond.io\" target=_blank>email</a>)",
            "label": "",
            "profile": "arcsecond",
            "observing_site": null,
            "telescope": null,
            "instrument": null,
            "programme": null,
            "programme_type": "",
            "target_name": "",
            "coordinates": null,
            "organisation": "oma",
            "collaboration": null
        },
        {
            "id": 180436,
            "creation_date": "2022-01-13T14:12:52.879962Z",
            "date": "2022-01-13T14:06:23.200000Z",
            "links": [],
            "title": "",
            "content": "",
            "label": "",
            "profile": "arcsecond",
            "observing_site": "fcfa529d-880d-45ac-82e1-579640a4e439",
            "telescope": "fc2b9794-5be0-4946-96d1-dd0c7d77f590",
            "instrument": "a6f52f5c-37f6-435a-b37a-f3c197f141db",
            "programme": {
                "identifier": "GN-2021B-Q-403",
                "investigators_list": "Tom Seccull, ",
                "investigators": [
                    {
                        "url": "https://api.arcsecond.io/people/?format=json?name=Tom%20Seccull",
                        "first_name": "Tom",
                        "middle_name": "",
                        "initials": [],
                        "last_name": "Seccull"
                    },
                    {
                        "url": "https://api.arcsecond.io/people/?format=json?name=",
                        "first_name": "",
                        "middle_name": "",
                        "initials": [],
                        "last_name": ""
                    }
                ],
                "title": "A Search for Fainter Solar Calibrators - GN",
                "abstract": "This is a continuation of GN-2021A-Q-409. ITC outputs for GMOS-N and GMOS-S look identical.",
                "abstract_url": "",
                "full_details_url": "https://api.arcsecond.io/archives/Gemini/programmes/GN-2021B-Q-403/?format=json"
            },
            "programme_type": "Gemini",
            "target_name": "Gaia DR2 3787935484606269824",
            "coordinates": {
                "right_ascension": 253.6815,
                "declination": -39.2535,
                "epoch": 2451545.0
            },
            "collaboration": null
        }
    ]
}